nrho,num_cores,repeat_num,runtime
24,1,0,23.847
24,1,1,23.948
24,1,2,23.752
24,1,3,23.595
24,1,4,23.68
24,2,0,17.529
24,2,1,17.049
24,2,2,16.66
24,2,3,17.806
24,2,4,17.055
24,4,0,24.272
24,4,1,22.756
24,4,2,24.328
24,4,3,23.537
24,4,4,24.563
24,6,0,21.929
24,6,1,18.799
24,6,2,19.643
24,6,3,18.313
24,6,4,20.334
24,8,0,14.545
24,8,1,14.791
24,8,2,15.108
24,8,3,14.245
24,8,4,14.542
24,9,0,15.31
24,9,1,14.88
24,9,2,14.888
24,9,3,15.116
24,9,4,15.668
